%YAML 1.1
%TAG !u! tag:unity3d.com,2011:
--- !u!21 &2100000
Material:
  serializedVersion: 6
  m_ObjectHideFlags: 0
  m_CorrespondingSourceObject: {fileID: 0}
  m_PrefabInstance: {fileID: 0}
  m_PrefabAsset: {fileID: 0}
  m_Name: C
  m_Shader: {fileID: -6465566751694194690, guid: 8752af3ba457e29408dcbb5a1abd1944, type: 3}
  m_ShaderKeywords: 
  m_LightmapFlags: 4
  m_EnableInstancingVariants: 0
  m_DoubleSidedGI: 0
  m_CustomRenderQueue: -1
  stringTagMap: {}
  disabledShaderPasses: []
  m_SavedProperties:
    serializedVersion: 3
    m_TexEnvs:
    - _MainTex:
        m_Texture: {fileID: 2800000, guid: 222cb6744dc3c3d40b823d7d8cd539f5, type: 3}
        m_Scale: {x: 1, y: 1}
        m_Offset: {x: 0, y: 0}
    - _NoiseTex:
        m_Texture: {fileID: 2800000, guid: a80e545e9aeb34e4c951931909cbc4a4, type: 3}
        m_Scale: {x: 1, y: 1}
        m_Offset: {x: 0, y: 0}
    - _SecondTex:
        m_Texture: {fileID: 2800000, guid: 888b6b0ed7308e443b36a063ec5145db, type: 3}
        m_Scale: {x: 1, y: 1}
        m_Offset: {x: 0, y: 0}
    - _Texture2DAsset_0663e29103414bb29fcb2aa6b6f00160_Out_0:
        m_Texture: {fileID: 2800000, guid: a80e545e9aeb34e4c951931909cbc4a4, type: 3}
        m_Scale: {x: 1, y: 1}
        m_Offset: {x: 0, y: 0}
    - unity_Lightmaps:
        m_Texture: {fileID: 0}
        m_Scale: {x: 1, y: 1}
        m_Offset: {x: 0, y: 0}
    - unity_LightmapsInd:
        m_Texture: {fileID: 0}
        m_Scale: {x: 1, y: 1}
        m_Offset: {x: 0, y: 0}
    - unity_ShadowMasks:
        m_Texture: {fileID: 0}
        m_Scale: {x: 1, y: 1}
        m_Offset: {x: 0, y: 0}
    m_Ints: []
    m_Floats:
    - AO: 30
    - Alpha: 0.189
    - Noise: 0.5
    - Noise_P: 1
    - Noise_S: 1
    - Noise_Speed: 0.02
    - Size: 3.2
    - Speed: 0.08
    m_Colors:
    - Noise_Offset: {r: 0, g: 1, b: 0, a: 0}
    - Noise_Tile: {r: 1, g: 1, b: 0, a: 0}
    - Noise_tile: {r: 10, g: 10, b: 0, a: 0}
    - _Color: {r: 4.0156865, g: 1.3803922, b: 1.3803922, a: 0}
  m_BuildTextureStacks: []
