%YAML 1.1
%TAG !u! tag:unity3d.com,2011:
--- !u!1001 &8728675170730520430
PrefabInstance:
  m_ObjectHideFlags: 0
  serializedVersion: 2
  m_Modification:
    m_TransformParent: {fileID: 0}
    m_Modifications:
    - target: {fileID: 2814570093041864173, guid: 6c8f882bf695aea47a67deca836390ba, type: 3}
      propertyPath: m_Materials.Array.data[0]
      value: 
      objectReference: {fileID: 2100000, guid: 525dc6a1bbb1c8b4d81b4bbb7850464a, type: 2}
    - target: {fileID: 2814570093053362307, guid: 6c8f882bf695aea47a67deca836390ba, type: 3}
      propertyPath: m_Name
      value: MECH_METAL
      objectReference: {fileID: 0}
    - target: {fileID: 2814570093053598945, guid: 6c8f882bf695aea47a67deca836390ba, type: 3}
      propertyPath: m_RootOrder
      value: 0
      objectReference: {fileID: 0}
    - target: {fileID: 2814570093053598945, guid: 6c8f882bf695aea47a67deca836390ba, type: 3}
      propertyPath: m_LocalPosition.x
      value: 0
      objectReference: {fileID: 0}
    - target: {fileID: 2814570093053598945, guid: 6c8f882bf695aea47a67deca836390ba, type: 3}
      propertyPath: m_LocalPosition.y
      value: 0
      objectReference: {fileID: 0}
    - target: {fileID: 2814570093053598945, guid: 6c8f882bf695aea47a67deca836390ba, type: 3}
      propertyPath: m_LocalPosition.z
      value: 0
      objectReference: {fileID: 0}
    - target: {fileID: 2814570093053598945, guid: 6c8f882bf695aea47a67deca836390ba, type: 3}
      propertyPath: m_LocalRotation.w
      value: 1
      objectReference: {fileID: 0}
    - target: {fileID: 2814570093053598945, guid: 6c8f882bf695aea47a67deca836390ba, type: 3}
      propertyPath: m_LocalRotation.x
      value: 0
      objectReference: {fileID: 0}
    - target: {fileID: 2814570093053598945, guid: 6c8f882bf695aea47a67deca836390ba, type: 3}
      propertyPath: m_LocalRotation.y
      value: 0
      objectReference: {fileID: 0}
    - target: {fileID: 2814570093053598945, guid: 6c8f882bf695aea47a67deca836390ba, type: 3}
      propertyPath: m_LocalRotation.z
      value: 0
      objectReference: {fileID: 0}
    - target: {fileID: 2814570093053598945, guid: 6c8f882bf695aea47a67deca836390ba, type: 3}
      propertyPath: m_LocalEulerAnglesHint.x
      value: 0
      objectReference: {fileID: 0}
    - target: {fileID: 2814570093053598945, guid: 6c8f882bf695aea47a67deca836390ba, type: 3}
      propertyPath: m_LocalEulerAnglesHint.y
      value: 0
      objectReference: {fileID: 0}
    - target: {fileID: 2814570093053598945, guid: 6c8f882bf695aea47a67deca836390ba, type: 3}
      propertyPath: m_LocalEulerAnglesHint.z
      value: 0
      objectReference: {fileID: 0}
    - target: {fileID: 8452271299333165815, guid: 6c8f882bf695aea47a67deca836390ba, type: 3}
      propertyPath: PrefabName
      value: MECH_METAL
      objectReference: {fileID: 0}
    m_RemovedComponents: []
  m_SourcePrefab: {fileID: 100100000, guid: 6c8f882bf695aea47a67deca836390ba, type: 3}
